<svg xmlns="http://www.w3.org/2000/svg" width="55.133" height="38" viewBox="0 0 55.133 38">
  <path id="Unión_7" data-name="Unión 7" d="M14085.273,5031.253a5.853,5.853,0,0,1,5.923-5.864,5.366,5.366,0,0,1,2.8.752v1.61a4.426,4.426,0,0,0-7.337,3.457,4.379,4.379,0,0,0,7.337,3.369v1.64a6.015,6.015,0,0,1-2.923.783A5.764,5.764,0,0,1,14085.273,5031.253Zm-21.967,2.629,1.405-.295a2.1,2.1,0,1,0,4.207-.059c0-1.2-.96-1.715-1.921-2.112l-.768-.326c-1.27-.547-2.421-1.271-2.421-2.821a3.035,3.035,0,0,1,3.276-2.88,3.173,3.173,0,0,1,2.865,1.683l-1.106.664a1.905,1.905,0,0,0-1.785-1.048,1.755,1.755,0,0,0-1.86,1.581c0,.871.854,1.33,1.548,1.6l.8.311c1.58.62,2.76,1.492,2.76,3.354a3.432,3.432,0,0,1-3.559,3.472A3.472,3.472,0,0,1,14063.307,5033.882Zm8.6-2.9a5.833,5.833,0,0,1,11.665,0,5.833,5.833,0,0,1-11.665,0Zm1.388,0a4.445,4.445,0,1,0,8.889,0,4.445,4.445,0,1,0-8.889,0Zm-12.445,5.778-1.271-2.793h-5.107l-1.271,2.793h-1.492l5.315-11.613,5.315,11.613Zm-5.8-4.063H14059l-1.98-4.506Zm-12.454,1.619a2.64,2.64,0,0,1,1.4-2.172l.5-.37a2.741,2.741,0,0,1-.882-1.791,1.85,1.85,0,0,1,3.693-.086c0,.922-.785,1.541-1.453,2.041l1.666,2.063.935-1.107.637.673-.979,1.173,1.435,1.814h-1.232l-.871-1.109a3.213,3.213,0,0,1-2.4,1.282A2.391,2.391,0,0,1,14042.588,5034.319Zm2.386-1.736c-.552.39-1.453.942-1.453,1.726a1.572,1.572,0,0,0,1.484,1.51,2.8,2.8,0,0,0,1.835-1.085l-1.77-2.217Zm-.434-2.716a1.683,1.683,0,0,0,.477,1.021l.267.348.128-.088c.4-.325.953-.661.953-1.259a.913.913,0,0,0-1.824-.021Zm-4.54-6.338V5000h1.818v21.864h12.023v1.665Zm5.7-11.765a7.408,7.408,0,0,1,14.815,0,7.408,7.408,0,0,1-14.815,0Zm1.765,0a5.644,5.644,0,1,0,11.287,0,5.644,5.644,0,1,0-11.287,0Zm36.278,7.075,7.161-12.536h-6.148v-1.613h9.021l-7.162,12.534h7.162v1.615Zm-20.437,0V5004.69h2.021c4.351,0,5.7,1.5,5.7,4.09,0,2.984-2.271,4.129-4.951,4.129h-1.012v5.931Zm1.761-7.507h.562c1.8,0,3.751-.338,3.751-2.589,0-2.214-2.1-2.477-3.843-2.477h-.47Zm8.75,7.5V5004.69h7.6v1.613h-5.832v3.959h5.663v1.614h-5.663v5.348h5.832v1.613Z" transform="translate(-14039.5 -4999.5)" fill="#036489" stroke="rgba(0,0,0,0)" stroke-miterlimit="10" stroke-width="1"/>
</svg>
